^C:\USERS\ALAN\SOURCE\REPOS\RAYLIBTEST\RAYLIBTEST\RAYLIBTEST.CPP
/c /I"C:\USERS\ALAN\SOURCE\REPOS\RAYLIBTEST\LIB\RAYLIB-3.0.0-WIN32-MSVC15\RAYLIB-3.0.0-WIN32-MSVC15\INCLUDE" /ZI /JMC /nologo /W3 /WX- /diagnostics:column /sdl /Od /Oy- /D WIN32 /D _DEBUG /D _CONSOLE /D _UNICODE /D UNICODE /D GRAPHICS_API_OPENGL_33 /D PLATFORM_DESKTOP /Gm- /EHsc /RTC1 /MDd /GS /fp:precise /permissive- /Zc:wchar_t /Zc:forScope /Zc:inline /Fo"C:\USERS\ALAN\SOURCE\REPOS\RAYLIBTEST\OBJ\WIN32\DEBUG\\" /Fd"C:\USERS\ALAN\SOURCE\REPOS\RAYLIBTEST\OBJ\WIN32\DEBUG\VC142.PDB" /Gd /TP /analyze- /FC C:\USERS\ALAN\SOURCE\REPOS\RAYLIBTEST\RAYLIBTEST\RAYLIBTEST.CPP
^C:\USERS\ALAN\DOCUMENTS\GITHUB\DSVJ1_2020_PONG\RAYLIBTEST\RAYLIBTEST\CONTROLS.CPP
/c /I"C:\USERS\ALAN\DOCUMENTS\GITHUB\DSVJ1_2020_PONG\RAYLIBTEST\LIB\RAYLIB-3.0.0-WIN32-MSVC15\RAYLIB-3.0.0-WIN32-MSVC15\INCLUDE" /ZI /JMC /nologo /W3 /WX- /diagnostics:column /sdl /Od /Oy- /D WIN32 /D _DEBUG /D _CONSOLE /D _UNICODE /D UNICODE /D GRAPHICS_API_OPENGL_33 /D PLATFORM_DESKTOP /Gm- /EHsc /RTC1 /MDd /GS /fp:precise /permissive- /Zc:wchar_t /Zc:forScope /Zc:inline /Fo"C:\USERS\ALAN\DOCUMENTS\GITHUB\DSVJ1_2020_PONG\RAYLIBTEST\OBJ\WIN32\DEBUG\\" /Fd"C:\USERS\ALAN\DOCUMENTS\GITHUB\DSVJ1_2020_PONG\RAYLIBTEST\OBJ\WIN32\DEBUG\VC142.PDB" /Gd /TP /analyze- /FC C:\USERS\ALAN\DOCUMENTS\GITHUB\DSVJ1_2020_PONG\RAYLIBTEST\RAYLIBTEST\CONTROLS.CPP
^C:\USERS\ALAN\DOCUMENTS\GITHUB\DSVJ1_2020_PONG\RAYLIBTEST\RAYLIBTEST\CREDITS.CPP
/c /I"C:\USERS\ALAN\DOCUMENTS\GITHUB\DSVJ1_2020_PONG\RAYLIBTEST\LIB\RAYLIB-3.0.0-WIN32-MSVC15\RAYLIB-3.0.0-WIN32-MSVC15\INCLUDE" /ZI /JMC /nologo /W3 /WX- /diagnostics:column /sdl /Od /Oy- /D WIN32 /D _DEBUG /D _CONSOLE /D _UNICODE /D UNICODE /D GRAPHICS_API_OPENGL_33 /D PLATFORM_DESKTOP /Gm- /EHsc /RTC1 /MDd /GS /fp:precise /permissive- /Zc:wchar_t /Zc:forScope /Zc:inline /Fo"C:\USERS\ALAN\DOCUMENTS\GITHUB\DSVJ1_2020_PONG\RAYLIBTEST\OBJ\WIN32\DEBUG\\" /Fd"C:\USERS\ALAN\DOCUMENTS\GITHUB\DSVJ1_2020_PONG\RAYLIBTEST\OBJ\WIN32\DEBUG\VC142.PDB" /Gd /TP /analyze- /FC C:\USERS\ALAN\DOCUMENTS\GITHUB\DSVJ1_2020_PONG\RAYLIBTEST\RAYLIBTEST\CREDITS.CPP
^C:\USERS\ALAN\DOCUMENTS\GITHUB\DSVJ1_2020_PONG\RAYLIBTEST\RAYLIBTEST\JUEGO.CPP
/c /I"C:\USERS\ALAN\DOCUMENTS\GITHUB\DSVJ1_2020_PONG\RAYLIBTEST\LIB\RAYLIB-3.0.0-WIN32-MSVC15\RAYLIB-3.0.0-WIN32-MSVC15\INCLUDE" /ZI /JMC /nologo /W3 /WX- /diagnostics:column /sdl /Od /Oy- /D WIN32 /D _DEBUG /D _CONSOLE /D _UNICODE /D UNICODE /D GRAPHICS_API_OPENGL_33 /D PLATFORM_DESKTOP /Gm- /EHsc /RTC1 /MDd /GS /fp:precise /permissive- /Zc:wchar_t /Zc:forScope /Zc:inline /Fo"C:\USERS\ALAN\DOCUMENTS\GITHUB\DSVJ1_2020_PONG\RAYLIBTEST\OBJ\WIN32\DEBUG\\" /Fd"C:\USERS\ALAN\DOCUMENTS\GITHUB\DSVJ1_2020_PONG\RAYLIBTEST\OBJ\WIN32\DEBUG\VC142.PDB" /Gd /TP /analyze- /FC C:\USERS\ALAN\DOCUMENTS\GITHUB\DSVJ1_2020_PONG\RAYLIBTEST\RAYLIBTEST\JUEGO.CPP
^C:\USERS\ALAN\DOCUMENTS\GITHUB\DSVJ1_2020_PONG\RAYLIBTEST\RAYLIBTEST\MENU.CPP
/c /I"C:\USERS\ALAN\DOCUMENTS\GITHUB\DSVJ1_2020_PONG\RAYLIBTEST\LIB\RAYLIB-3.0.0-WIN32-MSVC15\RAYLIB-3.0.0-WIN32-MSVC15\INCLUDE" /ZI /JMC /nologo /W3 /WX- /diagnostics:column /sdl /Od /Oy- /D WIN32 /D _DEBUG /D _CONSOLE /D _UNICODE /D UNICODE /D GRAPHICS_API_OPENGL_33 /D PLATFORM_DESKTOP /Gm- /EHsc /RTC1 /MDd /GS /fp:precise /permissive- /Zc:wchar_t /Zc:forScope /Zc:inline /Fo"C:\USERS\ALAN\DOCUMENTS\GITHUB\DSVJ1_2020_PONG\RAYLIBTEST\OBJ\WIN32\DEBUG\\" /Fd"C:\USERS\ALAN\DOCUMENTS\GITHUB\DSVJ1_2020_PONG\RAYLIBTEST\OBJ\WIN32\DEBUG\VC142.PDB" /Gd /TP /analyze- /FC C:\USERS\ALAN\DOCUMENTS\GITHUB\DSVJ1_2020_PONG\RAYLIBTEST\RAYLIBTEST\MENU.CPP
^C:\USERS\ALAN\DOCUMENTS\GITHUB\DSVJ1_2020_PONG\RAYLIBTEST\RAYLIBTEST\RAYLIBTEST.CPP
/c /I"C:\USERS\ALAN\DOCUMENTS\GITHUB\DSVJ1_2020_PONG\RAYLIBTEST\LIB\RAYLIB-3.0.0-WIN32-MSVC15\RAYLIB-3.0.0-WIN32-MSVC15\INCLUDE" /ZI /JMC /nologo /W3 /WX- /diagnostics:column /sdl /Od /Oy- /D WIN32 /D _DEBUG /D _CONSOLE /D _UNICODE /D UNICODE /D GRAPHICS_API_OPENGL_33 /D PLATFORM_DESKTOP /Gm- /EHsc /RTC1 /MDd /GS /fp:precise /permissive- /Zc:wchar_t /Zc:forScope /Zc:inline /Fo"C:\USERS\ALAN\DOCUMENTS\GITHUB\DSVJ1_2020_PONG\RAYLIBTEST\OBJ\WIN32\DEBUG\\" /Fd"C:\USERS\ALAN\DOCUMENTS\GITHUB\DSVJ1_2020_PONG\RAYLIBTEST\OBJ\WIN32\DEBUG\VC142.PDB" /Gd /TP /analyze- /FC C:\USERS\ALAN\DOCUMENTS\GITHUB\DSVJ1_2020_PONG\RAYLIBTEST\RAYLIBTEST\RAYLIBTEST.CPP
